{
  "errors": [
    {
      "context_filter": "",
      "responses": [
        "Can we talk about the food first?"
      ]
    },
    {
      "context_filter": "#ChooseFood",
      "responses": [
        "I don't want to eat that.",
        "Sorry, not for today."
      ]
    },
    {
      "context_filter": "#ChooseRestaurant",
      "responses": [
        "Can we get it from somewhere else?"
      ]
    },
    {
      "context_filter": "#EOC",
      "responses": [
        ""
      ]
    }
  ]
}
